[{
    "id": 1,
    "active_stream_count": 3
}, {
    "id": 2,
    "active_stream_count": 1
}, {
    "id": 3,
    "active_stream_count": 0
}, {
    "id": 4,
    "active_stream_count": 0
}, {
    "id": 5,
    "active_stream_count": 2
}, {
    "id": 6,
    "active_stream_count": 1
}]